{
    "UDP Settings": {
        "IP Address": "10.1.2.208",
        "Port": "11000"
    },
    "Target ASIC": {
        "FPGA Address": 0,
        "ASIC Address": 1
    },
    "Register Settings": {
        "CM_2                ": "00 00 00 80 00 00 00 00 00 00 00 00 00 00 c0",
        "CM_3                ": "00 00 00 80 00 00 00 00 00 00 00 00 00 00 c0",
        "Channel_36          ": "06 00 00 4C 00 00 00 00 00 00 00 00 00 00 C0",
        "Channel_37          ": "0A 00 00 78 00 00 00 00 00 00 00 00 00 00 C0",
        "Channel_38          ": "08 00 00 70 00 00 00 00 00 00 00 00 00 00 C0",
        "Channel_39          ": "10 00 00 94 00 00 00 00 00 00 00 00 00 00 C0",
        "Channel_40          ": "06 00 00 98 00 00 00 00 00 00 00 00 00 00 C0",
        "Channel_41          ": "02 00 00 A0 00 00 00 00 00 00 00 00 00 00 C0",
        "Channel_42          ": "0E 00 00 8C 00 00 00 00 00 00 00 00 00 00 C0",
        "Channel_43          ": "16 00 00 90 00 00 00 00 00 00 00 00 00 00 C0",
        "Channel_44          ": "08 00 00 6C 00 00 00 00 00 00 00 00 00 00 C0",
        "Channel_45          ": "08 00 00 84 00 00 00 00 00 00 00 00 00 00 C0",
        "Channel_46          ": "06 00 00 70 00 00 00 00 00 00 00 00 00 00 C0",
        "Channel_47          ": "06 00 00 50 00 00 00 00 00 00 00 00 00 00 C0",
        "Channel_48          ": "04 00 00 9C 00 00 00 00 00 00 00 00 00 00 C0",
        "Channel_49          ": "02 00 00 8C 00 00 00 00 00 00 00 00 00 00 C0",
        "Channel_50          ": "0C 00 00 94 00 00 00 00 00 00 00 00 00 00 C0",
        "Channel_51          ": "04 00 00 58 00 00 00 00 00 00 00 00 00 00 C0",
        "Channel_52          ": "06 00 00 60 00 00 00 00 00 00 00 00 00 00 C0",
        "Channel_53          ": "02 00 00 5C 00 00 00 00 00 00 00 00 00 00 C0",
        "Channel_54          ": "04 00 00 60 00 00 00 00 00 00 00 00 00 00 C0",
        "Channel_55          ": "04 00 00 4C 00 00 00 00 00 00 00 00 00 00 C0",
        "Channel_56          ": "02 00 00 84 00 00 00 00 00 00 00 00 00 00 C0",
        "Channel_57          ": "06 00 00 7C 00 00 00 00 00 00 00 00 00 00 C0",
        "Channel_58          ": "08 00 00 84 00 00 00 00 00 00 00 00 00 00 C0",
        "Channel_59          ": "02 00 00 00 00 00 00 00 00 00 00 00 00 00 C0",
        "Channel_60          ": "06 00 00 58 00 00 00 00 00 00 00 00 00 00 C0",
        "Channel_61          ": "0C 00 00 84 00 00 00 00 00 00 00 00 00 00 C0",
        "Channel_62          ": "06 00 00 70 00 00 00 00 00 00 00 00 00 00 C0",
        "Channel_63          ": "06 00 00 7C 00 00 00 00 00 00 00 00 00 00 C0",
        "Channel_64          ": "06 00 00 8C 00 00 00 00 00 00 00 00 00 00 C0",
        "Channel_65          ": "00 00 00 FC 00 00 00 00 00 00 00 00 00 00 C0",
        "Channel_66          ": "06 00 00 2C 00 00 00 00 00 00 00 00 00 00 C0",
        "Channel_67          ": "0E 00 00 90 00 00 00 00 00 00 00 00 00 00 C0",
        "Channel_68          ": "06 00 00 98 00 00 00 00 00 00 00 00 00 00 C0",
        "Channel_69          ": "0C 00 00 88 00 00 00 00 00 00 00 00 00 00 C0",
        "Channel_70          ": "06 00 00 58 00 00 00 00 00 00 00 00 00 00 C0",
        "Channel_71          ": "00 00 00 FC 00 00 00 00 00 00 00 00 00 00 C0",
        "CALIB_1             ": "00 00 00 80 00 00 00 00 00 00 00 00 00 00 c0",
        "Reference_Voltage_1 ": "DC 00 6C 1C 64 80 00 00 00 00 00",
        "Global_Analog_1     ": "cf d3 83 28 28 28 9a 9a a0 ca 42 48 4b 00 6f",
        "Master_TDC_1        ": "37 d4 40 80 08 b0 02 00 00 80 08 b1 02 00 00 00",
        "Digital_Half_1      ": "00 00 00 00 c0 00 00 00 00 00 00 00 00 19 00 08 cc cc cc 0c cc cc cc cc 0f 01 00",
        "HalfWise_1          ": "00 00 00 00 00 00 00 00 00 00 00 00 00 00 c0",
        "Top                 ": "0b 0f 40 7f 00 07 85 00 00 00 00 00 00 00 00 00 00 00 00 00 00",
        "CM_0                ": "00 00 00 80 00 00 00 00 00 00 00 00 00 00 c0",
        "CM_1                ": "00 00 00 80 00 00 00 00 00 00 00 00 00 00 c0",
        "Channel_0           ": "08 00 00 B4 00 00 00 00 00 00 00 00 00 00 C0",
        "Channel_1           ": "08 00 00 A0 00 00 00 00 00 00 00 00 00 00 C0",
        "Channel_2           ": "0C 00 00 90 00 00 00 00 00 00 00 00 00 00 C0",
        "Channel_3           ": "06 00 00 AC 00 00 00 00 00 00 00 00 00 00 C0",
        "Channel_4           ": "06 00 00 A0 00 00 00 00 00 00 00 00 00 00 C0",
        "Channel_5           ": "08 00 00 4C 00 00 00 00 00 00 00 00 00 00 C0",
        "Channel_6           ": "0A 00 00 50 00 00 00 00 00 00 00 00 00 00 C0",
        "Channel_7           ": "08 00 00 B0 00 00 00 00 00 00 00 00 00 00 C0",
        "Channel_8           ": "08 00 00 5C 00 00 00 00 00 00 00 00 00 00 C0",
        "Channel_9           ": "08 00 00 70 00 00 00 00 00 00 00 00 00 00 C0",
        "Channel_10          ": "06 00 00 B4 00 00 00 00 00 00 00 00 00 00 C0",
        "Channel_11          ": "04 00 00 9C 00 00 00 00 00 00 00 00 00 00 C0",
        "Channel_12          ": "02 00 00 18 00 00 00 00 00 00 00 00 00 00 C0",
        "Channel_13          ": "08 00 00 48 00 00 00 00 00 00 00 00 00 00 C0",
        "Channel_14          ": "06 00 00 A4 00 00 00 00 00 00 00 00 00 00 C0",
        "Channel_15          ": "04 00 00 84 00 00 00 00 00 00 00 00 00 00 C0",
        "Channel_16          ": "06 00 00 60 00 00 00 00 00 00 00 00 00 00 C0",
        "Channel_17          ": "04 00 00 C4 00 00 00 00 00 00 00 00 00 00 C0",
        "Channel_18          ": "02 00 00 78 00 00 00 00 00 00 00 00 00 00 C0",
        "Channel_19          ": "06 00 00 90 00 00 00 00 00 00 00 00 00 00 C0",
        "Channel_20          ": "06 00 00 88 00 00 00 00 00 00 00 00 00 00 C0",
        "Channel_21          ": "06 00 00 3C 00 00 00 00 00 00 00 00 00 00 C0",
        "Channel_22          ": "02 00 00 74 00 00 00 00 00 00 00 00 00 00 C0",
        "Channel_23          ": "04 00 00 94 00 00 00 00 00 00 00 00 00 00 C0",
        "Channel_24          ": "08 00 00 70 00 00 00 00 00 00 00 00 00 00 C0",
        "Channel_25          ": "02 00 00 B4 00 00 00 00 00 00 00 00 00 00 C0",
        "Channel_26          ": "06 00 00 80 00 00 00 00 00 00 00 00 00 00 C0",
        "Channel_27          ": "06 00 00 80 00 00 00 00 00 00 00 00 00 00 C0",
        "Channel_28          ": "0E 00 00 A4 00 00 00 00 00 00 00 00 00 00 C0",
        "Channel_29          ": "06 00 00 88 00 00 00 00 00 00 00 00 00 00 C0",
        "Channel_30          ": "08 00 00 68 00 00 00 00 00 00 00 00 00 00 C0",
        "Channel_31          ": "06 00 00 A4 00 00 00 00 00 00 00 00 00 00 C0",
        "Channel_32          ": "04 00 00 70 00 00 00 00 00 00 00 00 00 00 C0",
        "Channel_33          ": "08 00 00 64 00 00 00 00 00 00 00 00 00 00 C0",
        "Channel_34          ": "0A 00 00 50 00 00 00 00 00 00 00 00 00 00 C0",
        "Channel_35          ": "00 00 00 FC 00 00 00 00 00 00 00 00 00 00 C0",
        "CALIB_0             ": "00 00 00 80 00 00 00 00 00 00 00 00 00 00 c0",
        "Reference_Voltage_0 ": "DC 08 6C 1C 61 80 00 00 00 00 00",
        "Global_Analog_0     ": "cf d3 83 28 28 28 9a 9a a0 ca 42 48 4b 00 6f",
        "Master_TDC_0        ": "37 d4 40 80 08 b0 02 00 00 80 08 b1 02 00 00 00",
        "Digital_Half_0      ": "00 00 00 00 c0 00 00 00 00 00 00 00 00 19 00 08 cc cc cc 0c cc cc cc cc 0f 01 00",
        "HalfWise_0          ": "00 00 00 00 00 00 00 00 00 00 00 00 00 00 c0"
    },
    "PedestalCalib": {
        "script_name": "802_PedestalCalib",
        "output_folder": "802_PedestalCalib_data_20241029_111613",
        "output_config_json": "802_PedestalCalib_config_20241029_111613.json",
        "output_pedecalib_json": "802_PedestalCalib_pedecalib_20241029_111613.json",
        "DeadChannels": [],
        "ChannelNotUsed": [
            0,
            19,
            38,
            57,
            76,
            95,
            114,
            133,
            152
        ]
    }
}