{
    "UDP Settings": {
        "IP Address": "10.1.2.210",
        "Port": "11000"
    },
    "Target ASIC": {
        "FPGA Address": 2,
        "ASIC Address": 0
    },
    "Register Settings": {
        "CM_2                ": "00 00 00 00 00 00 00 00 00 00 00 00 00 00 c0",
        "CM_3                ": "00 00 00 00 00 00 00 00 00 00 00 00 00 00 c0",
        "Channel_36          ": "18 00 00 90 00 00 00 00 00 00 00 00 00 00 c0",
        "Channel_37          ": "20 00 00 98 00 00 00 00 00 00 00 00 00 00 c0",
        "Channel_38          ": "28 00 00 b8 00 00 00 00 00 00 00 00 00 00 c0",
        "Channel_39          ": "0a 00 00 50 00 00 00 00 00 00 00 00 00 00 c0",
        "Channel_40          ": "10 00 00 80 00 00 00 00 00 00 00 00 00 00 c0",
        "Channel_41          ": "08 00 00 58 00 00 00 00 00 00 00 00 00 00 c0",
        "Channel_42          ": "18 00 00 90 00 00 00 00 00 00 00 00 00 00 c0",
        "Channel_43          ": "02 00 00 60 00 00 00 00 00 00 00 00 00 00 c0",
        "Channel_44          ": "06 00 00 00 00 00 00 00 00 00 00 00 00 00 c0",
        "Channel_45          ": "12 00 00 80 00 00 00 00 00 00 00 00 00 00 c0",
        "Channel_46          ": "14 00 00 80 00 00 00 00 00 00 00 00 00 00 c0",
        "Channel_47          ": "04 00 00 28 00 00 00 00 00 00 00 00 00 00 c0",
        "Channel_48          ": "16 00 00 98 00 00 00 00 00 00 00 00 00 00 c0",
        "Channel_49          ": "08 00 00 68 00 00 00 00 00 00 00 00 00 00 c0",
        "Channel_50          ": "08 00 00 50 00 00 00 00 00 00 00 00 00 00 c0",
        "Channel_51          ": "0e 00 00 78 00 00 00 00 00 00 00 00 00 00 c0",
        "Channel_52          ": "0a 00 00 80 00 00 00 00 00 00 00 00 00 00 c0",
        "Channel_53          ": "06 00 00 40 00 00 00 00 00 00 00 00 00 00 c0",
        "Channel_54          ": "18 00 00 78 00 00 00 00 00 00 00 00 00 00 c0",
        "Channel_55          ": "12 00 00 98 00 00 00 00 00 00 00 00 00 00 c0",
        "Channel_56          ": "04 00 00 50 00 00 00 00 00 00 00 00 00 00 c0",
        "Channel_57          ": "02 00 00 38 00 00 00 00 00 00 00 00 00 00 c0",
        "Channel_58          ": "04 00 00 28 00 00 00 00 00 00 00 00 00 00 c0",
        "Channel_59          ": "0a 00 00 70 00 00 00 00 00 00 00 00 00 00 c0",
        "Channel_60          ": "0a 00 00 88 00 00 00 00 00 00 00 00 00 00 c0",
        "Channel_61          ": "0e 00 00 78 00 00 00 00 00 00 00 00 00 00 c0",
        "Channel_62          ": "06 00 00 50 00 00 00 00 00 00 00 00 00 00 c0",
        "Channel_63          ": "04 00 00 58 00 00 00 00 00 00 00 00 00 00 c0",
        "Channel_64          ": "06 00 00 40 00 00 00 00 00 00 00 00 00 00 c0",
        "Channel_65          ": "0a 00 00 60 00 00 00 00 00 00 00 00 00 00 c0",
        "Channel_66          ": "08 00 00 60 00 00 00 00 00 00 00 00 00 00 c0",
        "Channel_67          ": "04 00 00 78 00 00 00 00 00 00 00 00 00 00 c0",
        "Channel_68          ": "08 00 00 78 00 00 00 00 00 00 00 00 00 00 c0",
        "Channel_69          ": "0c 00 00 60 00 00 00 00 00 00 00 00 00 00 c0",
        "Channel_70          ": "18 00 00 80 00 00 00 00 00 00 00 00 00 00 c0",
        "Channel_71          ": "00 00 00 00 00 00 00 00 00 00 00 00 00 00 c0",
        "CALIB_1             ": "00 00 00 00 00 00 00 00 00 00 00 00 00 00 c0",
        "Reference_Voltage_1 ": "dc 08 6c 1c 60 c8 00 00 00 00 00",
        "Global_Analog_1     ": "cf d3 83 28 28 28 9a 9a a0 ca 42 48 4b 00 6f",
        "Master_TDC_1        ": "37 d4 40 80 08 b0 02 00 00 80 08 b1 02 00 00 00",
        "Digital_Half_1      ": "00 00 00 00 c0 00 00 00 00 00 00 00 00 19 00 18 cc cc cc 0c cc cc cc cc 0f 01 00",
        "HalfWise_1          ": "00 00 00 00 00 00 00 00 00 00 00 00 00 00 c0",
        "Top                 ": "0b 0f 40 7f 00 07 85 00 00 00 00 00 00 00 00 00 00 00 00 00 00",
        "CM_0                ": "00 00 00 00 00 00 00 00 00 00 00 00 00 00 c0",
        "CM_1                ": "00 00 00 00 00 00 00 00 00 00 00 00 00 00 c0",
        "Channel_0           ": "08 00 00 68 00 00 00 00 00 00 00 00 00 00 c0",
        "Channel_1           ": "0c 00 00 d8 00 00 00 00 00 00 00 00 00 00 c0",
        "Channel_2           ": "18 00 00 fc 00 00 00 00 00 00 00 00 00 00 c0",
        "Channel_3           ": "0e 00 00 f8 00 00 00 00 00 00 00 00 00 00 c0",
        "Channel_4           ": "0c 00 00 88 00 00 00 00 00 00 00 00 00 00 c0",
        "Channel_5           ": "12 00 00 d8 00 00 00 00 00 00 00 00 00 00 c0",
        "Channel_6           ": "0e 00 00 d0 00 00 00 00 00 00 00 00 00 00 c0",
        "Channel_7           ": "0c 00 00 d0 00 00 00 00 00 00 00 00 00 00 c0",
        "Channel_8           ": "0c 00 00 b0 00 00 00 00 00 00 00 00 00 00 c0",
        "Channel_9           ": "0e 00 00 c8 00 00 00 00 00 00 00 00 00 00 c0",
        "Channel_10          ": "0e 00 00 b0 00 00 00 00 00 00 00 00 00 00 c0",
        "Channel_11          ": "0c 00 00 d0 00 00 00 00 00 00 00 00 00 00 c0",
        "Channel_12          ": "0c 00 00 90 00 00 00 00 00 00 00 00 00 00 c0",
        "Channel_13          ": "14 00 00 d0 00 00 00 00 00 00 00 00 00 00 c0",
        "Channel_14          ": "0a 00 00 70 00 00 00 00 00 00 00 00 00 00 c0",
        "Channel_15          ": "0c 00 00 fc 00 00 00 00 00 00 00 00 00 00 c0",
        "Channel_16          ": "0a 00 00 98 00 00 00 00 00 00 00 00 00 00 c0",
        "Channel_17          ": "0c 00 00 fc 00 00 00 00 00 00 00 00 00 00 c0",
        "Channel_18          ": "0a 00 00 e0 00 00 00 00 00 00 00 00 00 00 c0",
        "Channel_19          ": "10 00 00 98 00 00 00 00 00 00 00 00 00 00 c0",
        "Channel_20          ": "0c 00 00 c8 00 00 00 00 00 00 00 00 00 00 c0",
        "Channel_21          ": "0c 00 00 b0 00 00 00 00 00 00 00 00 00 00 c0",
        "Channel_22          ": "0e 00 00 b8 00 00 00 00 00 00 00 00 00 00 c0",
        "Channel_23          ": "0a 00 00 fc 00 00 00 00 00 00 00 00 00 00 c0",
        "Channel_24          ": "10 00 00 fc 00 00 00 00 00 00 00 00 00 00 c0",
        "Channel_25          ": "0e 00 00 fc 00 00 00 00 00 00 00 00 00 00 c0",
        "Channel_26          ": "10 00 00 fc 00 00 00 00 00 00 00 00 00 00 c0",
        "Channel_27          ": "0a 00 00 fc 00 00 00 00 00 00 00 00 00 00 c0",
        "Channel_28          ": "08 00 00 fc 00 00 00 00 00 00 00 00 00 00 c0",
        "Channel_29          ": "10 00 00 fc 00 00 00 00 00 00 00 00 00 00 c0",
        "Channel_30          ": "0c 00 00 fc 00 00 00 00 00 00 00 00 00 00 c0",
        "Channel_31          ": "12 00 00 fc 00 00 00 00 00 00 00 00 00 00 c0",
        "Channel_32          ": "0e 00 00 fc 00 00 00 00 00 00 00 00 00 00 c0",
        "Channel_33          ": "0e 00 00 b0 00 00 00 00 00 00 00 00 00 00 c0",
        "Channel_34          ": "12 00 00 fc 00 00 00 00 00 00 00 00 00 00 c0",
        "Channel_35          ": "00 00 00 00 00 00 00 00 00 00 00 00 00 00 c0",
        "CALIB_0             ": "00 00 00 00 00 00 00 00 00 00 00 00 00 00 c0",
        "Reference_Voltage_0 ": "dc 00 6c 1c 5b c8 00 00 00 00 00",
        "Global_Analog_0     ": "cf d3 83 28 28 28 9a 9a a0 ca 42 48 4b 00 6f",
        "Master_TDC_0        ": "37 d4 40 80 08 b0 02 00 00 80 08 b1 02 00 00 00",
        "Digital_Half_0      ": "00 00 00 00 c0 00 00 00 00 00 00 00 00 19 00 18 cc cc cc 0c cc cc cc cc 0f 01 00",
        "HalfWise_0          ": "00 00 00 00 00 00 00 00 00 00 00 00 00 00 c0"
    }
}