{
    "UDP Settings": {
        "IP Address": "10.1.2.211",
        "Port": "11000"
    },
    "Target ASIC": {
        "FPGA Address": 3,
        "ASIC Address": 1
    },
    "Register Settings": {
        "CM_2                ": "00 00 00 00 00 00 00 00 00 00 00 00 00 00 c0",
        "CM_3                ": "00 00 00 00 00 00 00 00 00 00 00 00 00 00 c0",
        "Channel_36          ": "08 00 00 e8 00 00 00 00 00 00 00 00 00 00 c0",
        "Channel_37          ": "0e 00 00 fc 00 00 00 00 00 00 00 00 00 00 c0",
        "Channel_38          ": "0e 00 00 c8 00 00 00 00 00 00 00 00 00 00 c0",
        "Channel_39          ": "16 00 00 f4 00 00 00 00 00 00 00 00 00 00 c0",
        "Channel_40          ": "0a 00 00 d8 00 00 00 00 00 00 00 00 00 00 c0",
        "Channel_41          ": "06 00 00 d0 00 00 00 00 00 00 00 00 00 00 c0",
        "Channel_42          ": "12 00 00 d0 00 00 00 00 00 00 00 00 00 00 c0",
        "Channel_43          ": "1e 00 00 f8 00 00 00 00 00 00 00 00 00 00 c0",
        "Channel_44          ": "0c 00 00 e8 00 00 00 00 00 00 00 00 00 00 c0",
        "Channel_45          ": "0c 00 00 d8 00 00 00 00 00 00 00 00 00 00 c0",
        "Channel_46          ": "0a 00 00 ec 00 00 00 00 00 00 00 00 00 00 c0",
        "Channel_47          ": "08 00 00 90 00 00 00 00 00 00 00 00 00 00 c0",
        "Channel_48          ": "08 00 00 88 00 00 00 00 00 00 00 00 00 00 c0",
        "Channel_49          ": "06 00 00 70 00 00 00 00 00 00 00 00 00 00 c0",
        "Channel_50          ": "14 00 00 d0 00 00 00 00 00 00 00 00 00 00 c0",
        "Channel_51          ": "08 00 00 78 00 00 00 00 00 00 00 00 00 00 c0",
        "Channel_52          ": "0a 00 00 80 00 00 00 00 00 00 00 00 00 00 c0",
        "Channel_53          ": "08 00 00 68 00 00 00 00 00 00 00 00 00 00 c0",
        "Channel_54          ": "08 00 00 60 00 00 00 00 00 00 00 00 00 00 c0",
        "Channel_55          ": "08 00 00 10 00 00 00 00 00 00 00 00 00 00 c0",
        "Channel_56          ": "08 00 00 90 00 00 00 00 00 00 00 00 00 00 c0",
        "Channel_57          ": "0a 00 00 c8 00 00 00 00 00 00 00 00 00 00 c0",
        "Channel_58          ": "0e 00 00 b0 00 00 00 00 00 00 00 00 00 00 c0",
        "Channel_59          ": "06 00 00 60 00 00 00 00 00 00 00 00 00 00 c0",
        "Channel_60          ": "0a 00 00 d0 00 00 00 00 00 00 00 00 00 00 c0",
        "Channel_61          ": "14 00 00 fc 00 00 00 00 00 00 00 00 00 00 c0",
        "Channel_62          ": "0a 00 00 68 00 00 00 00 00 00 00 00 00 00 c0",
        "Channel_63          ": "0a 00 00 80 00 00 00 00 00 00 00 00 00 00 c0",
        "Channel_64          ": "0c 00 00 b0 00 00 00 00 00 00 00 00 00 00 c0",
        "Channel_65          ": "00 00 00 00 00 00 00 00 00 00 00 00 00 00 c0",
        "Channel_66          ": "08 00 00 c0 00 00 00 00 00 00 00 00 00 00 c0",
        "Channel_67          ": "14 00 00 78 00 00 00 00 00 00 00 00 00 00 c0",
        "Channel_68          ": "0a 00 00 fc 00 00 00 00 00 00 00 00 00 00 c0",
        "Channel_69          ": "10 00 00 fc 00 00 00 00 00 00 00 00 00 00 c0",
        "Channel_70          ": "0a 00 00 d8 00 00 00 00 00 00 00 00 00 00 c0",
        "Channel_71          ": "00 00 00 00 00 00 00 00 00 00 00 00 00 00 c0",
        "CALIB_1             ": "00 00 00 00 00 00 00 00 00 00 00 00 00 00 c0",
        "Reference_Voltage_1 ": "dc 00 6c 1c 6a c8 00 00 00 00 00",
        "Global_Analog_1     ": "cf d3 83 28 28 28 9a 9a a0 ca 42 48 4b 00 6f",
        "Master_TDC_1        ": "37 d4 40 80 08 b0 02 00 00 80 08 b1 02 00 00 00",
        "Digital_Half_1      ": "00 00 00 00 c0 00 00 00 00 00 00 00 00 19 00 18 cc cc cc 0c cc cc cc cc 0f 01 00",
        "HalfWise_1          ": "00 00 00 00 00 00 00 00 00 00 00 00 00 00 c0",
        "Top                 ": "0b 0f 40 7f 00 07 85 00 00 00 00 00 00 00 00 00 00 00 00 00 00",
        "CM_0                ": "00 00 00 00 00 00 00 00 00 00 00 00 00 00 c0",
        "CM_1                ": "00 00 00 00 00 00 00 00 00 00 00 00 00 00 c0",
        "Channel_0           ": "10 00 00 a8 00 00 00 00 00 00 00 00 00 00 c0",
        "Channel_1           ": "10 00 00 98 00 00 00 00 00 00 00 00 00 00 c0",
        "Channel_2           ": "24 00 00 f0 00 00 00 00 00 00 00 00 00 00 c0",
        "Channel_3           ": "0e 00 00 60 00 00 00 00 00 00 00 00 00 00 c0",
        "Channel_4           ": "0e 00 00 70 00 00 00 00 00 00 00 00 00 00 c0",
        "Channel_5           ": "0e 00 00 98 00 00 00 00 00 00 00 00 00 00 c0",
        "Channel_6           ": "1a 00 00 b8 00 00 00 00 00 00 00 00 00 00 c0",
        "Channel_7           ": "16 00 00 b8 00 00 00 00 00 00 00 00 00 00 c0",
        "Channel_8           ": "12 00 00 a8 00 00 00 00 00 00 00 00 00 00 c0",
        "Channel_9           ": "12 00 00 a0 00 00 00 00 00 00 00 00 00 00 c0",
        "Channel_10          ": "10 00 00 a0 00 00 00 00 00 00 00 00 00 00 c0",
        "Channel_11          ": "0c 00 00 80 00 00 00 00 00 00 00 00 00 00 c0",
        "Channel_12          ": "06 00 00 88 00 00 00 00 00 00 00 00 00 00 c0",
        "Channel_13          ": "12 00 00 b0 00 00 00 00 00 00 00 00 00 00 c0",
        "Channel_14          ": "0e 00 00 b0 00 00 00 00 00 00 00 00 00 00 c0",
        "Channel_15          ": "0c 00 00 40 00 00 00 00 00 00 00 00 00 00 c0",
        "Channel_16          ": "0e 00 00 88 00 00 00 00 00 00 00 00 00 00 c0",
        "Channel_17          ": "0c 00 00 a8 00 00 00 00 00 00 00 00 00 00 c0",
        "Channel_18          ": "0a 00 00 30 00 00 00 00 00 00 00 00 00 00 c0",
        "Channel_19          ": "16 00 00 a0 00 00 00 00 00 00 00 00 00 00 c0",
        "Channel_20          ": "14 00 00 b0 00 00 00 00 00 00 00 00 00 00 c0",
        "Channel_21          ": "0e 00 00 88 00 00 00 00 00 00 00 00 00 00 c0",
        "Channel_22          ": "0c 00 00 20 00 00 00 00 00 00 00 00 00 00 c0",
        "Channel_23          ": "0c 00 00 b0 00 00 00 00 00 00 00 00 00 00 c0",
        "Channel_24          ": "1e 00 00 c0 00 00 00 00 00 00 00 00 00 00 c0",
        "Channel_25          ": "0c 00 00 40 00 00 00 00 00 00 00 00 00 00 c0",
        "Channel_26          ": "12 00 00 b0 00 00 00 00 00 00 00 00 00 00 c0",
        "Channel_27          ": "10 00 00 a8 00 00 00 00 00 00 00 00 00 00 c0",
        "Channel_28          ": "26 00 00 a0 00 00 00 00 00 00 00 00 00 00 c0",
        "Channel_29          ": "14 00 00 98 00 00 00 00 00 00 00 00 00 00 c0",
        "Channel_30          ": "18 00 00 a0 00 00 00 00 00 00 00 00 00 00 c0",
        "Channel_31          ": "10 00 00 b8 00 00 00 00 00 00 00 00 00 00 c0",
        "Channel_32          ": "0e 00 00 10 00 00 00 00 00 00 00 00 00 00 c0",
        "Channel_33          ": "10 00 00 a0 00 00 00 00 00 00 00 00 00 00 c0",
        "Channel_34          ": "1a 00 00 c8 00 00 00 00 00 00 00 00 00 00 c0",
        "Channel_35          ": "00 00 00 00 00 00 00 00 00 00 00 00 00 00 c0",
        "CALIB_0             ": "00 00 00 00 00 00 00 00 00 00 00 00 00 00 c0",
        "Reference_Voltage_0 ": "dc 08 6c 1c 6a c8 00 00 00 00 00",
        "Global_Analog_0     ": "cf d3 83 28 28 28 9a 9a a0 ca 42 48 4b 00 6f",
        "Master_TDC_0        ": "37 d4 40 80 08 b0 02 00 00 80 08 b1 02 00 00 00",
        "Digital_Half_0      ": "00 00 00 00 c0 00 00 00 00 00 00 00 00 19 00 18 cc cc cc 0c cc cc cc cc 0f 01 00",
        "HalfWise_0          ": "00 00 00 00 00 00 00 00 00 00 00 00 00 00 c0"
    }
}