{
    "UDP Settings": {
        "IP Address": "10.1.2.208",
        "Port": "11000"
    },
    "Target ASIC": {
        "FPGA Address": 0,
        "ASIC Address": 0
    },
    "Register Settings": {
        "CM_0                ": "00 00 00 00 00 00 00 00 00 00 00 00 00 00 c0",
        "CM_1                ": "00 00 00 00 00 00 00 00 00 00 00 00 00 00 c0",
        "HalfWise_0          ": "00 00 00 00 00 00 00 00 00 00 00 00 00 00 c0",
        "Channel_0           ": "06 70 fc 20 00 00 00 00 00 00 00 00 00 00 c0",
        "Channel_1           ": "1c 4c fc 58 00 00 00 00 00 00 00 00 00 00 c0",
        "Channel_2           ": "06 64 fc 00 00 00 00 00 00 00 00 00 00 00 c0",
        "Channel_3           ": "06 50 78 28 00 00 00 00 00 00 00 00 00 00 c0",
        "Channel_4           ": "06 54 50 00 00 00 00 00 00 00 00 00 00 00 c0",
        "Channel_5           ": "04 88 64 38 00 00 00 00 00 00 00 00 00 00 c0",
        "Channel_6           ": "0a 4c 50 10 00 00 00 00 00 00 00 00 00 00 c0",
        "Channel_7           ": "0e 38 78 40 00 00 00 00 00 00 00 00 00 00 c0",
        "Channel_8           ": "04 ac 9c 40 00 00 00 00 00 00 00 00 00 00 c0",
        "Channel_9           ": "06 00 78 30 00 00 00 00 00 00 00 00 00 00 c0",
        "Channel_10          ": "0a 38 64 18 00 00 00 00 00 00 00 00 00 00 c0",
        "Channel_11          ": "06 00 14 28 00 00 00 00 00 00 00 00 00 00 c0",
        "Channel_12          ": "12 00 14 40 00 00 00 00 00 00 00 00 00 00 c0",
        "Channel_13          ": "0a 24 dc 28 00 00 00 00 00 00 00 00 00 00 c0",
        "Channel_14          ": "06 74 64 30 00 00 00 00 00 00 00 00 00 00 c0",
        "Channel_15          ": "06 2c a0 30 00 00 00 00 00 00 00 00 00 00 c0",
        "Channel_16          ": "08 10 fc 10 00 00 00 00 00 00 00 00 00 00 c0",
        "Channel_17          ": "06 78 fc 18 00 00 00 00 00 00 00 00 00 00 c0",
        "Channel_18          ": "00 00 00 00 00 00 00 00 00 00 00 00 00 00 c0",
        "Channel_19          ": "0a 40 00 30 00 00 00 00 00 00 00 00 00 00 c0",
        "Channel_20          ": "0a 50 8c 28 00 00 00 00 00 00 00 00 00 00 c0",
        "Channel_21          ": "04 94 5c 48 00 00 00 00 00 00 00 00 00 00 c0",
        "Channel_22          ": "04 40 54 38 00 00 00 00 00 00 00 00 00 00 c0",
        "Channel_23          ": "04 00 a0 00 00 00 00 00 00 00 00 00 00 00 c0",
        "Channel_24          ": "10 00 00 40 00 00 00 00 00 00 00 00 00 00 c0",
        "Channel_25          ": "04 10 c8 38 00 00 00 00 00 00 00 00 00 00 c0",
        "Channel_26          ": "04 00 50 50 00 00 00 00 00 00 00 00 00 00 c0",
        "Channel_27          ": "06 00 a0 48 00 00 00 00 00 00 00 00 00 00 c0",
        "Channel_28          ": "02 0c b4 20 00 00 00 00 00 00 00 00 00 00 c0",
        "Channel_29          ": "04 38 c8 10 00 00 00 00 00 00 00 00 00 00 c0",
        "Channel_30          ": "06 00 8c 28 00 00 00 00 00 00 00 00 00 00 c0",
        "Channel_31          ": "0a 74 8c 30 00 00 00 00 00 00 00 00 00 00 c0",
        "Channel_32          ": "0a 44 50 18 00 00 00 00 00 00 00 00 00 00 c0",
        "Channel_33          ": "14 58 a0 40 00 00 00 00 00 00 00 00 00 00 c0",
        "Channel_34          ": "1a 04 a0 48 00 00 00 00 00 00 00 00 00 00 c0",
        "Channel_35          ": "20 54 fc 58 00 00 00 00 00 00 00 00 00 00 c0",
        "CALIB_0             ": "00 00 00 00 00 00 00 00 00 00 00 00 00 00 c0",
        "CM_2                ": "00 00 00 00 00 00 00 00 00 00 00 00 00 00 c0",
        "CM_3                ": "00 00 00 00 00 00 00 00 00 00 00 00 00 00 c0",
        "Channel_36          ": "06 cc fc 50 00 00 00 00 00 00 00 00 00 00 c0",
        "Channel_37          ": "08 6c c8 88 00 00 00 00 00 00 00 00 00 00 c0",
        "Channel_38          ": "08 00 50 50 00 00 00 00 00 00 00 00 00 00 c0",
        "Channel_39          ": "0a 30 a0 60 00 00 00 00 00 00 00 00 00 00 c0",
        "Channel_40          ": "06 2c c8 80 00 00 00 00 00 00 00 00 00 00 c0",
        "Channel_41          ": "0a a0 7c 50 00 00 00 00 00 00 00 00 00 00 c0",
        "Channel_42          ": "00 00 00 00 00 00 00 00 00 00 00 00 00 00 c0",
        "Channel_43          ": "18 40 fc 88 00 00 00 00 00 00 00 00 00 00 c0",
        "Channel_44          ": "06 64 c8 90 00 00 00 00 00 00 00 00 00 00 c0",
        "Channel_45          ": "06 50 c8 30 00 00 00 00 00 00 00 00 00 00 c0",
        "Channel_46          ": "06 c8 fc 50 00 00 00 00 00 00 00 00 00 00 c0",
        "Channel_47          ": "06 90 f0 68 00 00 00 00 00 00 00 00 00 00 c0",
        "Channel_48          ": "08 14 a0 58 00 00 00 00 00 00 00 00 00 00 c0",
        "Channel_49          ": "06 00 00 60 00 00 00 00 00 00 00 00 00 00 c0",
        "Channel_50          ": "06 28 c8 68 00 00 00 00 00 00 00 00 00 00 c0",
        "Channel_51          ": "02 a8 fc 80 00 00 00 00 00 00 00 00 00 00 c0",
        "Channel_52          ": "04 2c a0 88 00 00 00 00 00 00 00 00 00 00 c0",
        "Channel_53          ": "04 a0 a8 70 00 00 00 00 00 00 00 00 00 00 c0",
        "Channel_54          ": "00 28 00 00 00 00 00 00 00 00 00 00 00 00 c0",
        "Channel_55          ": "08 50 a0 38 00 00 00 00 00 00 00 00 00 00 c0",
        "Channel_56          ": "0a 7c f0 70 00 00 00 00 00 00 00 00 00 00 c0",
        "Channel_57          ": "04 14 c8 88 00 00 00 00 00 00 00 00 00 00 c0",
        "Channel_58          ": "06 58 dc 38 00 00 00 00 00 00 00 00 00 00 c0",
        "Channel_59          ": "06 64 c8 60 00 00 00 00 00 00 00 00 00 00 c0",
        "Channel_60          ": "02 10 dc 80 00 00 00 00 00 00 00 00 00 00 c0",
        "Channel_61          ": "08 10 50 18 00 00 00 00 00 00 00 00 00 00 c0",
        "Channel_62          ": "02 44 ec 58 00 00 00 00 00 00 00 00 00 00 c0",
        "Channel_63          ": "08 a4 00 38 00 00 00 00 00 00 00 00 00 00 c0",
        "Channel_64          ": "02 0c f0 70 00 00 00 00 00 00 00 00 00 00 c0",
        "Channel_65          ": "04 c8 f4 58 00 00 00 00 00 00 00 00 00 00 c0",
        "Channel_66          ": "06 54 00 60 00 00 00 00 00 00 00 00 00 00 c0",
        "Channel_67          ": "08 6c f0 28 00 00 00 00 00 00 00 00 00 00 c0",
        "Channel_68          ": "04 b0 00 78 00 00 00 00 00 00 00 00 00 00 c0",
        "Channel_69          ": "0c 2c f0 60 00 00 00 00 00 00 00 00 00 00 c0",
        "Channel_70          ": "08 50 fc 30 00 00 00 00 00 00 00 00 00 00 c0",
        "Channel_71          ": "08 a4 fc 00 00 00 00 00 00 00 00 00 00 00 c0",
        "CALIB_1             ": "00 00 00 00 00 00 00 00 00 00 00 00 00 00 c0",
        "Global_Analog_0     ": "0f d3 83 28 28 28 9a 9a a0 ca 42 48 4b 00 6f",
        "Global_Analog_1     ": "cf d3 83 28 28 28 9a 9a a0 ca 42 48 4b 00 6f",
        "Digital_Half_0      ": "00 00 00 00 c0 00 00 00 00 00 00 00 00 19 00 18 cc cc cc 0c cc cc cc cc 0f 02 00",
        "Digital_Half_1      ": "00 00 00 00 c0 00 00 00 00 00 00 00 00 19 00 18 cc cc cc 0c cc cc cc cc 0f 02 00",
        "Reference_Voltage_0 ": "dc 38 70 1e 62 c8 00 00 00 00 07",
        "Reference_Voltage_1 ": "dc 10 78 21 67 c8 00 00 00 00 07",
        "Master_TDC_0        ": "37 d4 40 80 08 b0 02 00 00 80 08 b1 02 00 00 00",
        "Master_TDC_1        ": "37 d4 40 80 08 b0 02 00 00 80 08 b1 02 00 00 00",
        "Top                 ": "0b 0f 40 7f 00 07 85 00 00 00 00 00 00 00 00 00 00 00 00 00 00"
    }
}