{
    "PC_UDP": {
        "ip": "10.1.2.207",
        "port": "11000"
    },
    "KCU_UDP": {
        "FPGA 0": {
            "ip": "10.1.2.208",
            "port": "11000"
        },
        "FPGA 1": {
            "ip": "10.1.2.209",
            "port": "11000"
        },
        "FPGA 2": {
            "ip": "10.1.2.210",
            "port": "11000"
        },
        "FPGA 3": {
            "ip": "10.1.2.211",
            "port": "11000"
        },
        "FPGA 4": {
            "ip": "10.1.2.212",
            "port": "11000"
        },
        "FPGA 5": {
            "ip": "10.1.2.213",
            "port": "11000"
        },
        "FPGA 6": {
            "ip": "10.1.2.214",
            "port": "11000"
        },
        "FPGA 7": {
            "ip": "10.1.2.215",
            "port": "11000"
        }
    }
}